<svg width="40" height="40" viewBox="0 0 40 40" fill="none" xmlns="http://www.w3.org/2000/svg">
<path d="M38.8961 9.29187L21.4623 0.364841C20.5123 -0.121614 19.4873 -0.121614 18.5379 0.364841L1.10344 9.29187C-0.367814 10.045 -0.367814 13.2877 1.10344 14.0408L4.14283 15.597C3.47595 16.971 3.06595 18.647 3.02532 20.4824C2.42345 21.0574 1.9997 22.0949 1.9997 23.3334C1.9997 24.4564 2.3547 25.4011 2.86595 26.0053L1.27032 37.9719C1.13157 39.0125 1.60657 40 2.24595 40H5.75284C6.39284 40 6.86784 39.0125 6.72909 37.9719L5.13346 26.0053C5.64471 25.4011 5.99971 24.4564 5.99971 23.3334C5.99971 22.1282 5.59533 21.1199 5.02096 20.5345C5.06846 18.9699 5.54846 17.5866 6.31409 16.7095L18.5373 22.9689C19.1035 23.2584 20.1898 23.6199 21.4616 22.9689L38.8961 14.0418C40.368 13.2877 40.368 10.046 38.8961 9.29187V9.29187ZM22.0491 26.1553C20.266 27.0678 18.7466 26.5636 17.9498 26.1553L8.88597 21.5147L7.99972 33.3334C7.99972 37.0156 13.3722 40 19.9998 40C26.6273 40 31.9998 37.0156 31.9998 33.3334L31.1136 21.5137L22.0491 26.1553V26.1553Z" fill="#3B82FF"/>
</svg>
