<?xml version="1.0" encoding="UTF-8"?>
<!DOCTYPE svg PUBLIC "-//W3C//DTD SVG 1.1//EN" "http://www.w3.org/Graphics/SVG/1.1/DTD/svg11.dtd">
<!-- Creator: CorelDRAW 2021 (64-Bit) -->
<svg xmlns="http://www.w3.org/2000/svg" xml:space="preserve" width="700mm" height="700mm" version="1.1" style="shape-rendering:geometricPrecision; text-rendering:geometricPrecision; image-rendering:optimizeQuality; fill-rule:evenodd; clip-rule:evenodd"
viewBox="0 0 70000 70000"
 xmlns:xlink="http://www.w3.org/1999/xlink"
 xmlns:xodm="http://www.corel.com/coreldraw/odm/2003">
 <defs>
  <font id="FontID0" horiz-adv-x="709" font-variant="normal" class="str0" style="fill-rule:nonzero" font-weight="400">
	<font-face 
		font-family="ISOCTEUR">
		<font-face-src>
			<font-face-name name="ISOCTEUR"/>
		</font-face-src>
	</font-face>
   <missing-glyph><path d="M0 0z"/></missing-glyph>
   <glyph unicode="C" horiz-adv-x="709" d="M483.667 644.001c21.333,0 32.1662,-10.6665 32.1662,-31.9995 0,-21.3362 -10.8332,-32.0027 -32.1662,-32.0027l-129.002 0c-26.9981,0 -49.8315,-9.4995 -68.6638,-28.3318 -18.6688,-18.8323 -28.0016,-41.6657 -28.0016,-68.3336l0 -322.499c0,-26.8346 9.4995,-49.668 28.335,-68.5003 18.8323,-18.8355 41.6657,-28.335 68.3304,-28.335l129.002 0c21.333,0 32.1662,-10.6665 32.1662,-31.9995 0,-21.333 -10.8332,-31.9995 -32.1662,-31.9995l-129.002 0c-44.4999,0 -82.4979,15.6679 -113.831,47.0006 -31.1691,31.4994 -46.8339,69.5006 -46.8339,114l0 321.999c0,44.4999 15.6647,82.5011 46.8339,114 31.3327,31.3327 69.3307,47.0006 113.831,47.0006l129.002 0z"/>
   <glyph unicode="E" horiz-adv-x="709" d="M194.001 32.1662l0 579.669c0,21.4997 10.6665,32.1662 31.9995,32.1662l257.666 0c21.333,0 32.1662,-10.6665 32.1662,-31.9995 0,-21.3362 -10.8332,-32.0027 -32.1662,-32.0027l-225.667 0 0 -193.998 161.168 0c21.4997,0 32.1662,-10.6665 32.1662,-32.0027 0,-21.333 -10.6665,-31.9995 -32.1662,-31.9995l-161.168 0 0 -258 225.667 0c21.333,0 32.1662,-10.6665 32.1662,-31.9995 0,-21.333 -10.8332,-31.9995 -32.1662,-31.9995l-257.666 0c-21.333,0 -31.9995,10.6665 -31.9995,32.1662z"/>
   <glyph unicode="I" horiz-adv-x="709" d="M353.998 0c-21.333,0 -31.9995,10.8332 -31.9995,32.3329l0 580.499c0,21.5029 10.6665,32.1694 31.9995,32.1694 21.3362,0 32.0027,-10.6665 32.0027,-32.1694l0 -580.499c0,-21.4997 -10.6665,-32.3329 -32.0027,-32.3329z"/>
   <glyph unicode="N" horiz-adv-x="709" d="M484 156.833l0 455.999c0,21.5029 10.6665,32.1694 31.9995,32.1694 21.333,0 31.9995,-10.6665 31.9995,-32.1694l0 -580.499c0,-21.4997 -10.6665,-32.3329 -31.9995,-32.3329 -12.8338,0 -22.1666,5.33486 -27.9984,16.1681l-263.001 472.5 0 -456.335c0,-21.4997 -10.6665,-32.3329 -31.9995,-32.3329 -21.333,0 -31.9995,10.8332 -31.9995,32.3329l0 580.499c0,21.5029 10.6665,32.1694 32.1662,32.1694 12.8338,0 22.6667,-6.33514 29.8322,-19.0022l261.001 -469.166z"/>
   <glyph unicode="O" horiz-adv-x="709" d="M484 193.001l0 258c0,36.1674 -12.5004,66.6665 -37.5011,91.6672 -25.0007,24.8308 -55.6665,37.3312 -92.0006,37.3312 -36.3309,0 -66.9999,-12.5004 -91.9974,-37.3312 -25.0007,-25.0007 -37.5011,-55.4998 -37.5011,-91.6672l0 -258c0,-36.1674 12.5004,-66.6665 37.5011,-91.6672 24.9975,-24.834 55.6665,-37.3344 91.9974,-37.3344 36.3341,0 66.9999,12.5004 92.0006,37.3344 25.0007,25.0007 37.5011,55.4998 37.5011,91.6672zm63.999 0.166714c0,-53.3325 -18.8323,-98.8327 -56.6668,-136.5 -37.8313,-37.8345 -83.3315,-56.6668 -136.834,-56.6668 -53.4992,0 -98.9994,18.8323 -136.831,56.6668 -37.8345,37.6678 -56.6668,83.168 -56.6668,136.5l0 257.666c0,53.3325 18.8323,98.8327 56.6668,136.5 37.8313,37.8313 83.3315,56.6668 136.831,56.6668 53.8359,0 99.5027,-18.8355 137.001,-56.3334 37.6678,-37.6678 56.5001,-83.168 56.5001,-136.834l0 -257.666z"/>
   <glyph unicode="S" horiz-adv-x="708" d="M547.997 161.167c0,-44.3322 -15.828,-82.1631 -47.3322,-113.834 -31.6637,-31.4966 -69.6616,-47.3322 -113.834,-47.3322 -79.4972,0 -150.161,23.3319 -211.666,69.8363 -9.49379,7.16212 -14.1647,15.9951 -14.1647,26.332 0,8.83302 3.16713,16.3293 9.50139,22.8307 6.33426,6.33426 13.9976,9.50139 22.8307,9.50139 5.17222,0 11.3318,-1.99749 18.5015,-5.83299 19.0028,-11.4989 48.669,-26.4991 89.1657,-45.0006 26.332,-9.1672 55.1703,-13.6635 86.1656,-13.6635 26.6662,0 49.5044,9.49379 68.4996,28.3295 18.8357,18.8357 28.3371,41.6664 28.3371,68.3325 0,39.3347 -18.0002,68.1654 -53.8336,86.3327l-181.498 92.8341c-58.5045,30.0004 -87.6695,77.6668 -87.6695,142.999 0,44.3322 15.8356,82.1707 47.4993,113.834 31.6713,31.5042 69.6692,47.3322 114.001,47.3322 76.3301,0 134.5,-11.666 174.663,-34.8308 12.6685,-7.50389 19.0028,-17.1648 19.0028,-29.1649 0,-8.83302 -3.16713,-16.3369 -9.50139,-22.6712 -6.33426,-6.33426 -13.8306,-9.50139 -22.6636,-9.50139 -3.33422,0 -7.83807,1.16964 -13.6711,3.33422 -49.831,19.1699 -99.1607,28.8383 -148.164,28.8383 -26.8333,0 -49.6639,-9.50139 -68.6667,-28.3371 -19.0028,-18.8357 -28.4966,-41.6664 -28.4966,-68.3325 0,-39.3347 17.666,-67.9983 52.831,-85.9986l181.666 -92.667c58.9982,-30.3346 88.4973,-78.1681 88.4973,-143.501z"/>
   <glyph unicode="T" horiz-adv-x="709" d="M160.834 612.002c0,21.333 10.8332,31.9995 32.3329,31.9995l321.665 0c21.4997,0 32.3329,-10.6665 32.3329,-31.9995 0,-21.3362 -10.8332,-32.0027 -32.3329,-32.0027l-128.832 0 0 -547.833c0,-21.4997 -10.6665,-32.1662 -32.0027,-32.1662 -21.333,0 -31.9995,10.6665 -31.9995,32.1662l0 547.833 -128.832 0c-21.4997,0 -32.3329,10.6665 -32.3329,32.0027z"/>
   <glyph unicode="U" horiz-adv-x="708" d="M547.997 612.836l0 -419.337c0,-53.4994 -18.8281,-99.0013 -56.6665,-136.832 -37.8309,-37.8309 -83.3327,-56.6665 -136.832,-56.6665 -53.4994,0 -99.0013,18.8357 -136.832,56.6665 -37.8309,37.8309 -56.6665,83.3327 -56.6665,136.832l0 419.337c0,21.4939 10.6634,32.165 31.9979,32.165 21.3344,0 32.0055,-10.8305 32.0055,-32.3321l0 -419.504c0,-36.1675 12.4938,-66.8287 37.4967,-91.8315 25.0028,-24.8358 55.664,-37.3296 91.9986,-37.3296 36.3346,0 67.0034,12.4938 91.9986,37.3296 25.0028,25.0028 37.5043,55.664 37.5043,91.8315l0 419.504c0,21.5015 10.6634,32.3321 31.9979,32.3321 21.3344,0 31.9979,-10.671 31.9979,-32.165z"/>
  </font>
  <style type="text/css">
   <![CDATA[
    @font-face { font-family:"ISOCTEUR";font-variant:normal;font-weight:normal;src:url("#FontID0") format(svg)}
    .str0 {stroke-width:16.03;stroke-miterlimit:22.9256}
    .str1 {stroke:#007BFF;stroke-width:50;stroke-miterlimit:22.9256}
    .fil0 {fill:#007BFF}
    .fil1 {fill:#333333}
    .fnt1 {font-weight:normal;font-size:1316.65px;font-family:'ISOCTEUR'}
    .fnt0 {font-weight:normal;font-size:3119.11px;font-family:'ISOCTEUR'}
   ]]>
  </style>
 </defs>
 <g id="Capa_x0020_1">
  <metadata id="CorelCorpID_0Corel-Layer"/>
  <polygon class="fil0" points="28480.37,48487.93 28478.63,49043.11 27807.17,49638.2 27563.51,49638.76 27563.51,48487.93 "/>
  <polygon class="fil0" points="28480.37,48487.93 28478.63,49043.11 27807.17,49638.2 27563.51,49638.76 27563.51,48487.93 "/>
  <polygon class="fil0" points="27563.51,49655.12 28720.17,50819.75 27563.51,50819.75 "/>
  <polygon class="fil0" points="27563.51,49655.12 28720.17,50819.75 27563.51,50819.75 "/>
  <rect class="fil0" x="29344.7" y="49355.02" width="550.64" height="618.96"/>
  <rect class="fil0" x="29344.7" y="49355.02" width="550.64" height="618.96"/>
  <polygon class="fil0" points="28594.02,49168.55 28594.05,48487.92 29895.34,48487.92 29895.34,49229.85 29212.25,49229.85 29216.56,49967.93 28902.08,49968.33 "/>
  <polygon class="fil0" points="28594.02,49168.55 28594.05,48487.92 29895.34,48487.92 29895.34,49229.85 29212.25,49229.85 29216.56,49967.93 28902.08,49968.33 "/>
  <polygon class="fil0" points="28869.1,50819.75 27866.44,49791.06 28465.14,49291.88 29107.36,50819.75 "/>
  <polygon class="fil0" points="28869.1,50819.75 27866.44,49791.06 28465.14,49291.88 29107.36,50819.75 "/>
  <polygon class="fil0" points="28930.64,50057.24 29901.42,50057.24 29901.42,50819.75 29205.76,50816.77 "/>
  <polygon class="fil0" points="28930.64,50057.24 29901.42,50057.24 29901.42,50819.75 29205.76,50816.77 "/>
  <g transform="matrix(0.755475 0 0 1 3844.46 14951.5)">
   <text x="35000" y="35000"  class="fil0 str1 fnt0">ITCENCO</text>
  </g>
  <g transform="matrix(0.394266 0 0 1 17134.5 16409)">
   <text x="35000" y="35000"  class="fil1 fnt1">INSTITUTO</text>
  </g>
  <polygon class="fil0" points="28958.48,48228.79 27263.93,48228.79 27263.93,51091.64 30189.93,51091.64 30189.93,48228.79 29584.7,48228.79 29584.7,47913.04 30505.65,47913.04 30505.65,51417.84 26948.2,51417.84 26948.2,47895.62 28968.12,47895.62 28968.12,48228.79 "/>
  <rect class="fil0" x="29118.65" y="47897.15" width="319.7" height="336.81"/>
 </g>
</svg>
