<svg width="276" height="232" viewBox="0 0 276 232" fill="none" xmlns="http://www.w3.org/2000/svg">
<path d="M175.881 173.923V229.849H55.0574C41.2912 229.849 30.0908 217.304 30.0908 201.886C30.0908 186.467 41.2912 173.923 55.0574 173.923H175.881Z" fill="#F2F2F2"/>
<path d="M178.849 229.419C178.848 229.989 178.653 230.536 178.305 230.94C177.957 231.343 177.486 231.57 176.994 231.57H52.9049C46.1655 231.57 39.702 228.465 34.9365 222.939C30.1709 217.412 27.4937 209.917 27.4937 202.101C27.4937 194.286 30.1709 186.79 34.9365 181.264C39.702 175.738 46.1655 172.633 52.9049 172.633H176.994C177.486 172.633 177.957 172.859 178.305 173.263C178.653 173.666 178.849 174.213 178.849 174.784C178.849 175.354 178.653 175.901 178.305 176.305C177.957 176.708 177.486 176.935 176.994 176.935H52.9049C47.1493 176.935 41.6294 179.586 37.5596 184.306C33.4897 189.026 31.2033 195.427 31.2033 202.101C31.2033 208.776 33.4897 215.177 37.5596 219.897C41.6294 224.617 47.1493 227.268 52.9049 227.268H176.994C177.486 227.268 177.957 227.495 178.305 227.898C178.653 228.302 178.848 228.849 178.849 229.419Z" fill="#6C63FF"/>
<path d="M175.881 186.829H46.0424C45.944 186.829 45.8496 186.784 45.78 186.703C45.7105 186.622 45.6714 186.513 45.6714 186.399C45.6714 186.285 45.7105 186.175 45.78 186.095C45.8496 186.014 45.944 185.969 46.0424 185.969H175.881C175.979 185.969 176.074 186.014 176.143 186.095C176.213 186.175 176.252 186.285 176.252 186.399C176.252 186.513 176.213 186.622 176.143 186.703C176.074 186.784 175.979 186.829 175.881 186.829Z" fill="#CCCCCC"/>
<path d="M175.881 197.154H46.0424C45.944 197.154 45.8496 197.109 45.78 197.028C45.7105 196.947 45.6714 196.838 45.6714 196.724C45.6714 196.61 45.7105 196.5 45.78 196.419C45.8496 196.339 45.944 196.293 46.0424 196.293H175.881C175.979 196.293 176.074 196.339 176.143 196.419C176.213 196.5 176.252 196.61 176.252 196.724C176.252 196.838 176.213 196.947 176.143 197.028C176.074 197.109 175.979 197.154 175.881 197.154Z" fill="#CCCCCC"/>
<path d="M175.881 207.479H46.0424C45.944 207.479 45.8496 207.433 45.78 207.353C45.7105 207.272 45.6714 207.162 45.6714 207.048C45.6714 206.934 45.7105 206.825 45.78 206.744C45.8496 206.663 45.944 206.618 46.0424 206.618H175.881C175.979 206.618 176.074 206.663 176.143 206.744C176.213 206.825 176.252 206.934 176.252 207.048C176.252 207.162 176.213 207.272 176.143 207.353C176.074 207.433 175.979 207.479 175.881 207.479Z" fill="#CCCCCC"/>
<path d="M175.881 217.803H46.0424C45.944 217.803 45.8496 217.758 45.78 217.677C45.7105 217.597 45.6714 217.487 45.6714 217.373C45.6714 217.259 45.7105 217.15 45.78 217.069C45.8496 216.988 45.944 216.943 46.0424 216.943H175.881C175.979 216.943 176.074 216.988 176.143 217.069C176.213 217.15 176.252 217.259 176.252 217.373C176.252 217.487 176.213 217.597 176.143 217.677C176.074 217.758 175.979 217.803 175.881 217.803Z" fill="#CCCCCC"/>
<path d="M269.26 184.451L239.002 227.999L144.919 140.088C134.199 130.071 132.265 112.154 140.607 100.148C148.949 88.1419 164.457 86.5231 175.177 96.5394L269.26 184.451Z" fill="#F2F2F2"/>
<path d="M241.546 229.823C241.237 230.267 240.789 230.551 240.3 230.612C239.811 230.673 239.321 230.506 238.938 230.148L142.313 139.862C137.065 134.958 133.711 127.838 132.991 120.067C132.27 112.296 134.24 104.512 138.469 98.4258C142.697 92.34 148.837 88.4514 155.538 87.6154C162.239 86.7795 168.952 89.0647 174.2 93.9684L270.825 184.255C271.015 184.432 271.173 184.651 271.29 184.899C271.407 185.147 271.48 185.419 271.506 185.7C271.532 185.981 271.511 186.265 271.442 186.536C271.373 186.808 271.259 187.06 271.107 187.28C270.954 187.5 270.765 187.683 270.551 187.819C270.337 187.954 270.102 188.039 269.86 188.07C269.618 188.1 269.373 188.074 269.139 187.994C268.905 187.915 268.687 187.782 268.498 187.605L171.872 97.3182C169.653 95.2431 167.103 93.6953 164.368 92.7632C161.633 91.8312 158.767 91.5331 155.933 91.886C153.098 92.2389 150.352 93.2359 147.85 94.8201C145.348 96.4043 143.139 98.5446 141.351 101.119C139.562 103.693 138.229 106.65 137.426 109.822C136.623 112.994 136.367 116.319 136.673 119.605C136.978 122.892 137.839 126.077 139.206 128.978C140.573 131.879 142.42 134.439 144.64 136.512L241.265 226.798C241.648 227.157 241.893 227.676 241.946 228.243C241.998 228.811 241.854 229.379 241.546 229.823Z" fill="#CCCCCC"/>
<path d="M262.278 194.5L161.175 100.03C161.137 99.9944 161.105 99.9506 161.082 99.901C161.059 99.8515 161.044 99.797 161.039 99.7409C161.034 99.6847 161.038 99.6279 161.052 99.5737C161.065 99.5195 161.088 99.4689 161.119 99.4249C161.149 99.3809 161.187 99.3444 161.23 99.3173C161.273 99.2902 161.319 99.2732 161.368 99.2671C161.416 99.2611 161.465 99.2661 161.512 99.2821C161.559 99.298 161.602 99.3244 161.64 99.3599L262.743 193.83C262.781 193.866 262.813 193.909 262.836 193.959C262.86 194.009 262.874 194.063 262.88 194.119C262.885 194.176 262.881 194.232 262.867 194.287C262.853 194.341 262.83 194.392 262.8 194.436C262.769 194.48 262.731 194.516 262.689 194.543C262.646 194.57 262.599 194.587 262.55 194.593C262.502 194.599 262.453 194.594 262.406 194.578C262.359 194.562 262.316 194.536 262.278 194.5V194.5Z" fill="#CCCCCC"/>
<path d="M256.691 202.54L155.589 108.07C155.512 107.998 155.463 107.894 155.453 107.781C155.442 107.667 155.471 107.554 155.533 107.465C155.594 107.376 155.684 107.319 155.782 107.307C155.879 107.295 155.977 107.328 156.054 107.4L257.157 201.87C257.195 201.905 257.227 201.949 257.25 201.999C257.273 202.048 257.288 202.103 257.293 202.159C257.299 202.215 257.294 202.272 257.281 202.326C257.267 202.381 257.244 202.431 257.213 202.475C257.183 202.519 257.145 202.556 257.102 202.583C257.059 202.61 257.012 202.627 256.964 202.633C256.915 202.639 256.866 202.634 256.82 202.618C256.773 202.602 256.729 202.576 256.691 202.54Z" fill="#CCCCCC"/>
<path d="M251.105 210.579L150.002 116.109C149.926 116.037 149.877 115.933 149.866 115.82C149.856 115.707 149.885 115.593 149.946 115.504C150.008 115.415 150.098 115.358 150.196 115.346C150.293 115.334 150.391 115.367 150.468 115.439L251.571 209.909C251.609 209.945 251.64 209.989 251.664 210.038C251.687 210.088 251.702 210.142 251.707 210.198C251.712 210.255 251.708 210.311 251.694 210.366C251.68 210.42 251.658 210.47 251.627 210.514C251.596 210.558 251.559 210.595 251.516 210.622C251.473 210.649 251.426 210.666 251.378 210.672C251.329 210.678 251.28 210.673 251.234 210.657C251.187 210.641 251.143 210.615 251.105 210.579V210.579Z" fill="#CCCCCC"/>
<path d="M245.519 218.619L144.417 124.149C144.379 124.114 144.347 124.07 144.324 124.02C144.3 123.971 144.286 123.916 144.28 123.86C144.275 123.804 144.28 123.747 144.293 123.693C144.307 123.639 144.33 123.588 144.36 123.544C144.391 123.5 144.429 123.464 144.471 123.436C144.514 123.409 144.561 123.392 144.61 123.386C144.658 123.38 144.707 123.385 144.754 123.401C144.801 123.417 144.844 123.444 144.882 123.479L245.985 217.949C246.023 217.985 246.054 218.029 246.078 218.078C246.101 218.128 246.116 218.182 246.121 218.238C246.127 218.295 246.122 218.352 246.108 218.406C246.095 218.46 246.072 218.511 246.041 218.555C246.011 218.599 245.973 218.635 245.93 218.662C245.887 218.689 245.84 218.707 245.792 218.713C245.743 218.719 245.694 218.713 245.648 218.697C245.601 218.681 245.557 218.655 245.519 218.619Z" fill="#CCCCCC"/>
<path d="M275.629 232H0.370968C0.272581 232 0.178224 231.955 0.108654 231.874C0.0390837 231.793 0 231.684 0 231.57C0 231.456 0.0390837 231.346 0.108654 231.266C0.178224 231.185 0.272581 231.14 0.370968 231.14H275.629C275.727 231.14 275.822 231.185 275.891 231.266C275.961 231.346 276 231.456 276 231.57C276 231.684 275.961 231.793 275.891 231.874C275.822 231.955 275.727 232 275.629 232Z" fill="#CCCCCC"/>
<path d="M125.417 168.045L121.176 168.045L119.159 149.075L125.419 149.076L125.417 168.045Z" fill="#FFB8B8"/>
<path d="M118.147 166.639H126.326V172.611H112.997C112.997 171.827 113.13 171.05 113.389 170.326C113.648 169.601 114.027 168.943 114.505 168.388C114.984 167.834 115.551 167.394 116.176 167.094C116.801 166.794 117.471 166.639 118.147 166.639Z" fill="#2F2E41"/>
<path d="M82.0899 168.045L77.849 168.045L75.832 149.075L82.0914 149.076L82.0899 168.045Z" fill="#FFB8B8"/>
<path d="M74.8197 166.639H82.9987V172.611H69.6699C69.6699 171.827 69.8031 171.05 70.0619 170.326C70.3207 169.601 70.7 168.943 71.1782 168.388C71.6564 167.834 72.2242 167.394 72.849 167.094C73.4737 166.794 74.1434 166.639 74.8197 166.639Z" fill="#2F2E41"/>
<path d="M96.2554 27.332V25.181C96.2554 21.5014 97.5158 17.9726 99.7595 15.3707C102.003 12.7688 105.046 11.3071 108.219 11.3071H108.219C111.392 11.3071 114.435 12.7688 116.679 15.3707C118.922 17.9726 120.183 21.5014 120.183 25.181V27.332C120.183 29.9848 119.274 32.5289 117.657 34.4046C116.039 36.2804 113.845 37.3342 111.558 37.3342H104.88C103.748 37.3342 102.626 37.0755 101.58 36.5728C100.533 36.0702 99.5825 35.3334 98.7816 34.4046C97.9807 33.4758 97.3454 32.3732 96.9119 31.1597C96.4785 29.9462 96.2554 28.6455 96.2554 27.332Z" fill="#2F2E41"/>
<path d="M108.219 38.0741C113.251 38.0741 117.331 33.3435 117.331 27.508C117.331 21.6725 113.251 16.9419 108.219 16.9419C103.187 16.9419 99.1079 21.6725 99.1079 27.508C99.1079 33.3435 103.187 38.0741 108.219 38.0741Z" fill="#FFB8B8"/>
<path d="M58.6591 63.8221C59.0289 63.4173 59.4707 63.1113 59.9534 62.9259C60.4362 62.7404 60.9481 62.6799 61.4532 62.7487C61.9582 62.8175 62.4442 63.0139 62.8767 63.3241C63.3092 63.6342 63.6779 64.0505 63.9567 64.5438L71.7672 62.8304L73.8227 68.0808L62.7634 70.3207C62.0178 70.8089 61.1437 70.963 60.3068 70.7537C59.4698 70.5445 58.7281 69.9865 58.2222 69.1855C57.7163 68.3844 57.4814 67.396 57.5619 66.4075C57.6424 65.419 58.0328 64.4991 58.6591 63.8221V63.8221Z" fill="#FFB8B8"/>
<path d="M101.116 44.7284L101.218 44.9079L88.4097 54.6925L66.7977 62.6956C66.5112 62.8024 66.2655 63.021 66.1024 63.3142C65.9392 63.6074 65.8688 63.9571 65.903 64.3038L66.3744 69.013C66.3953 69.2215 66.4536 69.4225 66.5454 69.6033C66.6372 69.7841 66.7606 69.9406 66.9077 70.0629C67.0547 70.1852 67.2222 70.2704 67.3993 70.3133C67.5765 70.3561 67.7594 70.3555 67.9363 70.3116L88.2763 65.2556C89.2607 65.0123 90.1915 64.537 91.0109 63.8594L105.4 51.9872C105.922 51.5545 106.338 50.9726 106.608 50.2981C106.878 49.6236 106.994 48.8794 106.943 48.138C106.89 47.3956 106.671 46.6819 106.309 46.0671C105.946 45.4523 105.451 44.9576 104.874 44.6317C104.296 44.3058 103.655 44.1599 103.014 44.2083C102.373 44.2567 101.754 44.4978 101.218 44.9079L101.116 44.7284Z" fill="#CCCCCC"/>
<path d="M121.252 162.662C120.926 162.662 120.608 162.552 120.335 162.345C120.063 162.139 119.848 161.845 119.717 161.499L100.275 105.788C100.229 105.667 100.153 105.566 100.056 105.497C99.9594 105.427 99.8467 105.394 99.7332 105.402C99.6197 105.409 99.5109 105.457 99.4215 105.538C99.332 105.619 99.2661 105.73 99.2327 105.856L83.3707 160.093C83.3038 160.346 83.193 160.579 83.0452 160.78C82.8975 160.981 82.7158 161.145 82.5114 161.261C82.3071 161.378 82.0843 161.445 81.8569 161.458C81.6294 161.471 81.4021 161.43 81.1889 161.337L75.8698 159.024C75.5811 158.899 75.3278 158.684 75.1381 158.403C74.9483 158.122 74.8296 157.785 74.7951 157.43C72.4022 133.256 93.2693 72.2379 93.4804 71.6245L93.5388 71.4546L112.561 76.3342L112.601 76.3842C120.19 85.9853 126.428 146.542 127.601 158.584C127.645 159.019 127.56 159.458 127.359 159.829C127.159 160.2 126.856 160.481 126.499 160.626L121.804 162.551C121.627 162.624 121.44 162.662 121.252 162.662Z" fill="#2F2E41"/>
<path d="M104.862 78.2987C100.254 78.2987 95.1155 77.2331 93.5339 72.8349L93.4975 72.7338L93.5467 72.6402C94.7951 70.2648 96.4451 66.2128 95.5582 65.4522C93.8112 63.9543 92.9635 61.4901 93.0388 58.1279C93.2022 50.8292 97.4906 44.3491 103.71 42.003H103.71C105.446 41.3587 107.213 40.8312 109.001 40.4232C110.305 40.1181 111.651 40.1516 112.942 40.5214C114.234 40.8912 115.438 41.5881 116.47 42.562C117.514 43.5422 118.358 44.7786 118.942 46.1822C119.525 47.5859 119.833 49.1219 119.844 50.6801C119.909 58.4799 118.874 69.3435 113.57 76.8018C113.322 77.1479 112.976 77.3811 112.593 77.4606C110.042 77.9958 107.455 78.2762 104.862 78.2987Z" fill="#CCCCCC"/>
<path d="M103.148 78.0064C103.399 76.9631 103.995 76.0767 104.806 75.5398C105.617 75.003 106.578 74.8592 107.48 75.1395C107.665 75.1992 107.844 75.2764 108.018 75.3702L113.948 69.1113L118.072 72.3336L109.591 81.0369C109.209 81.8377 108.606 82.4668 107.879 82.8244C107.152 83.1819 106.343 83.2473 105.58 83.0101C105.136 82.8691 104.72 82.6274 104.357 82.2989C103.994 81.9705 103.69 81.5618 103.464 81.0965C103.238 80.6312 103.094 80.1186 103.039 79.5882C102.985 79.0578 103.022 78.5202 103.148 78.0064Z" fill="#FFB8B8"/>
<path d="M113.008 78.0862C112.623 78.0865 112.25 77.9321 111.953 77.6495L109.614 75.4332C109.419 75.2484 109.263 75.0149 109.157 74.7501C109.05 74.4853 108.997 74.1962 109.001 73.9042C109.005 73.6123 109.066 73.3252 109.179 73.0643C109.292 72.8035 109.455 72.5757 109.654 72.398L119.463 63.6737C119.58 63.5698 119.656 63.4169 119.676 63.2482C119.695 63.0795 119.657 62.9086 119.569 62.7725L113.514 53.4905C112.811 52.4157 112.458 51.0869 112.518 49.7395C112.579 48.392 113.048 47.1127 113.844 46.128C114.681 45.0787 115.829 44.4329 117.058 44.3189C118.287 44.2049 119.508 44.6309 120.479 45.5125L120.518 45.5594L126.84 56.0572C127.523 56.6788 128.074 57.4752 128.448 58.3843C128.822 59.2934 129.01 60.2906 128.997 61.2979C128.985 62.3052 128.771 63.2954 128.373 64.1912C127.976 65.087 127.405 65.8641 126.706 66.4618L114.002 77.7066C113.714 77.9531 113.366 78.0862 113.008 78.0862Z" fill="#CCCCCC"/>
<path d="M100.148 24.5354V19.2929L108.219 15.2061L115.915 19.2929V24.5354C115.915 24.7636 115.836 24.9824 115.697 25.1438C115.558 25.3051 115.369 25.3958 115.173 25.3958H100.89C100.694 25.3958 100.505 25.3051 100.366 25.1438C100.227 24.9824 100.148 24.7636 100.148 24.5354Z" fill="#2F2E41"/>
<path d="M107.848 12.0024C106.662 7.59778 109.154 2.54991 112.838 0.806455C116.522 -0.936998 120.93 0.281729 124.039 3.16218C127.148 6.04262 129.077 10.357 130.099 14.8168C131.121 19.2765 131.315 23.927 131.503 28.5364C136.03 29.5006 139.109 35.7268 137.541 40.7447C135.973 45.7625 130.169 48.2554 126.161 45.6327C122.152 43.01 120.991 35.9599 123.884 31.8089C125.253 29.8447 126.018 27.4071 126.057 24.882C126.096 22.357 125.408 19.889 124.101 17.8687C122.795 15.8485 120.944 14.3916 118.843 13.7288C116.741 13.066 114.509 13.2352 112.5 14.2096C110.269 15.2915 107.47 12.4804 107.848 12.0024Z" fill="#2F2E41"/>
<path d="M56.986 43.4859C51.5664 43.4446 46.2146 42.0853 41.2762 39.4958C40.9823 39.3439 40.7328 39.0961 40.5581 38.7826C40.3834 38.4691 40.2911 38.1035 40.2925 37.7303V22.0633C40.293 21.5501 40.469 21.058 40.782 20.6951C41.0949 20.3321 41.5193 20.128 41.9618 20.1274H72.0102C72.4528 20.128 72.8771 20.3322 73.1901 20.6951C73.5031 21.058 73.6791 21.5501 73.6796 22.0633V37.7303C73.6809 38.1035 73.5887 38.4691 73.414 38.7826C73.2393 39.0961 72.9898 39.3439 72.6958 39.4958C67.7575 42.0853 62.4056 43.4446 56.986 43.4859Z" fill="#6C63FF"/>
<path d="M56.982 30.7936C56.7592 30.7938 56.5386 30.7424 56.3333 30.6423L32.5053 18.9841C32.198 18.8338 31.9366 18.5802 31.7548 18.256C31.5729 17.9317 31.479 17.5518 31.4851 17.1651C31.4913 16.7784 31.5971 16.4027 31.7891 16.0865C31.981 15.7702 32.2503 15.5278 32.5621 15.3907L56.3904 4.90771C56.7742 4.73809 57.1985 4.73914 57.5817 4.91065L81.0907 15.3936C81.4007 15.5319 81.6681 15.7743 81.8587 16.0898C82.0493 16.4053 82.1544 16.7796 82.1605 17.1647C82.1667 17.5499 82.0736 17.9284 81.8932 18.2519C81.7128 18.5754 81.4532 18.8291 81.1478 18.9805L57.6385 30.6385C57.431 30.7411 57.2076 30.7938 56.982 30.7936Z" fill="#6C63FF"/>
<path d="M43.0744 40.5618C44.3037 40.5618 45.3002 39.4062 45.3002 37.9806C45.3002 36.5551 44.3037 35.3994 43.0744 35.3994C41.8452 35.3994 40.8486 36.5551 40.8486 37.9806C40.8486 39.4062 41.8452 40.5618 43.0744 40.5618Z" fill="#3F3D56"/>
<path opacity="0.2" d="M81.229 17.3258L57.7197 28.9838C57.5364 29.0747 57.3392 29.1218 57.1399 29.1224C56.9405 29.1229 56.7432 29.0769 56.5595 28.9871L32.7315 17.3292C32.4323 17.1863 32.1826 16.9318 32.022 16.606C31.9169 16.8173 31.8518 17.052 31.831 17.2947C31.8102 17.5374 31.8341 17.7825 31.9012 18.0136C31.9683 18.2448 32.0771 18.4567 32.2202 18.6354C32.3634 18.8141 32.5377 18.9554 32.7315 19.05L56.5595 30.7078C56.7432 30.7977 56.9405 30.8437 57.1399 30.8432C57.3392 30.8426 57.5364 30.7955 57.7197 30.7046L81.229 19.0466C81.4219 18.9512 81.5951 18.8094 81.7373 18.6306C81.8795 18.4519 81.9873 18.2402 82.0537 18.0096C82.1201 17.7789 82.1436 17.5345 82.1226 17.2926C82.1016 17.0506 82.0366 16.8166 81.9318 16.606C81.7724 16.9292 81.5253 17.1822 81.229 17.3258Z" fill="black"/>
<path d="M43.2616 37.9703C43.36 37.9703 43.4543 37.925 43.5239 37.8443C43.5935 37.7636 43.6326 37.6542 43.6326 37.5401V23.145L55.8675 17.9761C55.9659 17.9778 56.0608 17.9341 56.1315 17.8546C56.2021 17.7752 56.2426 17.6664 56.244 17.5523C56.2455 17.4382 56.2078 17.3281 56.1393 17.2463C56.0707 17.1644 55.977 17.1174 55.8786 17.1157L43.6436 22.2846C43.5452 22.282 43.4473 22.3026 43.3559 22.3451C43.2645 22.3876 43.1815 22.4512 43.1119 22.5321C43.0416 22.6119 42.9858 22.7073 42.9478 22.8126C42.9098 22.9179 42.8903 23.0309 42.8906 23.145V37.5401C42.8906 37.6542 42.9297 37.7636 42.9993 37.8443C43.0689 37.9249 43.1632 37.9703 43.2616 37.9703Z" fill="#3F3D56"/>
</svg>
